my test workflow
…
library(tidyverse)
library(broom)
library(gt)

Import and wrangle data

In my starwars dataset, I threw out Jabba the Hut.

my_starwars_df <- dplyr::starwars |> 
  filter(mass < 500) |>   # Throw out Jabba
  select(name, mass, height, gender)
my_starwars_df

# A tibble: 58 × 4
   name                mass height gender   
   <chr>              <dbl>  <int> <chr>    
 1 Luke Skywalker        77    172 masculine
 2 C-3PO                 75    167 masculine
 3 R2-D2                 32     96 masculine
 4 Darth Vader          136    202 masculine
 5 Leia Organa           49    150 feminine 
 6 Owen Lars            120    178 masculine
 7 Beru Whitesun lars    75    165 feminine 
 8 R5-D4                 32     97 masculine
 9 Biggs Darklighter     84    183 masculine
10 Obi-Wan Kenobi        77    182 masculine
# ℹ 48 more rows
…
